^D:\ETHAN\WORKSPACE\PROJECT\DTU_FMU\TWOMASSESCMAKE\CMAKEFILES\63FE750DBC5CF051E12C77427110C9D6\GENERATE.STAMP.RULE
D:\ETHAN\WORKSPACE\PROJECT\DTU_FMU\TWOMASSESCMAKE\CMAKEFILES\3.26.2\CMAKECCOMPILER.CMAKE
D:\ETHAN\WORKSPACE\PROJECT\DTU_FMU\TWOMASSESCMAKE\CMAKEFILES\3.26.2\CMAKECXXCOMPILER.CMAKE
D:\ETHAN\WORKSPACE\PROJECT\DTU_FMU\TWOMASSESCMAKE\CMAKEFILES\3.26.2\CMAKERCCOMPILER.CMAKE
D:\ETHAN\WORKSPACE\PROJECT\DTU_FMU\TWOMASSESCMAKE\CMAKEFILES\3.26.2\CMAKESYSTEM.CMAKE
D:\ETHAN\WORKSPACE\PROJECT\DTU_FMU\TWOMASSESCMAKE\CMAKELISTS.TXT
D:\APP\CMAKE\SHARE\CMAKE-3.26\MODULES\CMAKECINFORMATION.CMAKE
D:\APP\CMAKE\SHARE\CMAKE-3.26\MODULES\CMAKECXXINFORMATION.CMAKE
D:\APP\CMAKE\SHARE\CMAKE-3.26\MODULES\CMAKECOMMONLANGUAGEINCLUDE.CMAKE
D:\APP\CMAKE\SHARE\CMAKE-3.26\MODULES\CMAKEGENERICSYSTEM.CMAKE
D:\APP\CMAKE\SHARE\CMAKE-3.26\MODULES\CMAKEINITIALIZECONFIGS.CMAKE
D:\APP\CMAKE\SHARE\CMAKE-3.26\MODULES\CMAKELANGUAGEINFORMATION.CMAKE
D:\APP\CMAKE\SHARE\CMAKE-3.26\MODULES\CMAKERCINFORMATION.CMAKE
D:\APP\CMAKE\SHARE\CMAKE-3.26\MODULES\CMAKESYSTEMSPECIFICINFORMATION.CMAKE
D:\APP\CMAKE\SHARE\CMAKE-3.26\MODULES\CMAKESYSTEMSPECIFICINITIALIZE.CMAKE
D:\APP\CMAKE\SHARE\CMAKE-3.26\MODULES\COMPILER\CMAKECOMMONCOMPILERMACROS.CMAKE
D:\APP\CMAKE\SHARE\CMAKE-3.26\MODULES\COMPILER\MSVC-C.CMAKE
D:\APP\CMAKE\SHARE\CMAKE-3.26\MODULES\COMPILER\MSVC-CXX.CMAKE
D:\APP\CMAKE\SHARE\CMAKE-3.26\MODULES\COMPILER\MSVC.CMAKE
D:\APP\CMAKE\SHARE\CMAKE-3.26\MODULES\PLATFORM\WINDOWS-MSVC-C.CMAKE
D:\APP\CMAKE\SHARE\CMAKE-3.26\MODULES\PLATFORM\WINDOWS-MSVC-CXX.CMAKE
D:\APP\CMAKE\SHARE\CMAKE-3.26\MODULES\PLATFORM\WINDOWS-MSVC.CMAKE
D:\APP\CMAKE\SHARE\CMAKE-3.26\MODULES\PLATFORM\WINDOWS.CMAKE
D:\APP\CMAKE\SHARE\CMAKE-3.26\MODULES\PLATFORM\WINDOWSPATHS.CMAKE
